…
# we can store it as a table
bugs.table = tbl_df(gather(data = bugs, key = weight, value = counts, -Region))

# we can of course change the order with the arrange function
arrange(bugs.table, Region)
# A tibble: 25 x 3
   Region       weight  counts
   <fct       <chr   <int>
 1 Gelb Rocks   <10 g       34
 2 Gelb Rocks   10-20 g     68
 3 Gelb Rocks   20-30 g     23
 4 Gelb Rocks   30-40 g     58
 5 Gelb Rocks   >40 g        9
 6 Hamock Flats <10 g       28
 7 Hamock Flats 10-20 g     23
 8 Hamock Flats 20-30 g     34
 9 Hamock Flats 30-40 g     45
10 Hamock Flats >40 g       11
# ... with 15 more rows
…
